RW-FFM Fuel Analysis - Import and wrangle 2d
…
Code

plot_centers <- pts

# We didn't collect data from all plots. Lets look at entered data and see
# which plots were used
con <- dbConnect(RSQLite::SQLite(), "../data/rw.db")
plots_data <- dbGetQuery(con, "SELECT * FROM plots") |> as_tibble()
plots_data

# A tibble: 198 × 8
   plotid site  treatment burn  plotnum coord_x coord_y notes          
    <int> <chr> <chr>     <chr>   <int>   <dbl>   <dbl> <chr>          
 1      1 bob   ls        b          12      NA      NA <NA>           
 2      2 bob   ls        b           3      NA      NA <NA>           
 3      3 bob   ls        b           5      NA      NA <NA>           
 4      4 bob   ls        b           6      NA      NA <NA>           
 5      5 bob   ls        b           9      NA      NA <NA>           
 6      6 bob   ls        nb          1      NA      NA <NA>           
 7      7 bob   ls        nb         12      NA      NA <NA>           
 8      8 bob   ls        nb          3      NA      NA dropped stage 2
 9      9 bob   ls        nb          6      NA      NA <NA>           
10     10 bob   ls        nb          9      NA      NA <NA>           
# ℹ 188 more rows
…
