RW-FFM Fuel Analysis - 1 Import and wrangle
…
 [1] "clumpsaplings"     "collectcrew"       "collectdatasheets"
 [4] "collectdates"      "collections"       "cwd"              
 [7] "datasheets"        "expand_collection" "fuelmetadata"     
[10] "fwd"               "plots"             "reftrees"         
[13] "regencounts"       "regenheights"      "regenmetadata"    
[16] "stages"            "station"           "transects"        
[19] "treedefect"        "treemetadata"      "trees"            

plots_data <- dbGetQuery(con, "SELECT * FROM plots") |> as_tibble()
plots_data

# A tibble: 184 × 8
   plotid site  treatment burn  plotnum coord_x  coord_y notes
    <int> <chr> <chr>     <chr>   <int>   <dbl>    <dbl> <chr>
 1      1 bob   ls        b          12 445608. 4361574. <NA> 
 2      2 bob   ls        b           3 445556. 4361715. <NA> 
 3      3 bob   ls        b           5 445651. 4361718. <NA> 
 4      4 bob   ls        b           6 445462. 4361664. <NA> 
 5      5 bob   ls        b           9 445559. 4361620. <NA> 
 6      6 bob   ls        nb          1 445578. 4361519. <NA> 
 7      7 bob   ls        nb         12 445582. 4361376. <NA> 
 8      8 bob   ls        nb          3 445532. 4361470. <NA> 
 9      9 bob   ls        nb          6 445675. 4361475. <NA> 
10     10 bob   ls        nb          9 445629. 4361426. <NA> 
# ℹ 174 more rows
…
